"Tabela 200 - População residente, por sexo, situação e grupos de idade - Amostra - Características Gerais da População",,,,,,,,,,,,,,,,,,,,,
Variável - População residente (Pessoas),,,,,,,,,,,,,,,,,,,,,
Nível,Cód.,Município,Grupo de idade,Ano x Sexo x Situação do domicílio,,,,,,,,,,,,,,,,,
Nível,Cód.,Município,Grupo de idade,2000,,,,,,,,,2010,,,,,,,,
Nível,Cód.,Município,Grupo de idade,Total,,,Homens,,,Mulheres,,,Total,,,Homens,,,Mulheres,,
Nível,Cód.,Município,Grupo de idade,Total,Urbana,Rural,Total,Urbana,Rural,Total,Urbana,Rural,Total,Urbana,Rural,Total,Urbana,Rural,Total,Urbana,Rural
MU,3300100,Angra dos Reis (RJ),Total,119247.00000,114300.00000,4947.00000,60089.00000,57548.00000,2541.00000,59158.00000,56752.00000,2406.00000,169511.00000,163199.15230,6311.84770,84666.00000,81424.07699,3241.92301,84845.00000,81775.07531,3069.92469
MU,3300159,Aperibé (RJ),Total,8018.00000,6842.00000,1176.00000,3963.00000,3347.00000,616.00000,4055.00000,3495.00000,560.00000,10213.00000,8878.00000,1335.00000,5023.00000,4333.00000,690.00000,5190.00000,4545.00000,645.00000
MU,3300209,Araruama (RJ),Total,82803.00000,75088.00000,7715.00000,40828.00000,36872.00000,3956.00000,41975.00000,38216.00000,3759.00000,112008.00000,106486.00000,5522.00000,54283.00000,51488.00000,2795.00000,57725.00000,54998.00000,2727.00000
MU,3300225,Areal (RJ),Total,9899.00000,8954.00000,945.00000,4905.00000,4409.00000,496.00000,4994.00000,4545.00000,449.00000,11423.00000,9923.00000,1500.00000,5661.00000,4868.00000,793.00000,5762.00000,5055.00000,707.00000
MU,3300233,Armação dos Búzios (RJ),Total,18204.00000,18204.00000,-,9282.00000,9282.00000,-,8922.00000,8922.00000,-,27560.00000,27560.00000,-,13742.00000,13742.00000,-,13818.00000,13818.00000,-
MU,3300258,Arraial do Cabo (RJ),Total,23877.00000,23877.00000,-,11972.00000,11972.00000,-,11905.00000,11905.00000,-,27715.00000,27715.00000,-,13627.00000,13627.00000,-,14088.00000,14088.00000,-
MU,3300308,Barra do Piraí (RJ),Total,88503.00000,84816.00000,3687.00000,42455.00000,40498.00000,1957.00000,46048.00000,44318.00000,1730.00000,94778.00000,91901.98870,2876.01130,45154.00000,43634.46309,1519.53691,49624.00000,48267.52560,1356.47440
MU,3300407,Barra Mansa (RJ),Total,170753.00000,165134.00000,5619.00000,83072.00000,80136.00000,2936.00000,87681.00000,84998.00000,2683.00000,177813.00000,176230.00000,1583.00000,85792.00000,84915.00000,877.00000,92021.00000,91315.00000,706.00000
MU,3300456,Belford Roxo (RJ),Total,434474.00000,434474.00000,-,211285.00000,211285.00000,-,223189.00000,223189.00000,-,469332.00000,469332.00000,-,226757.00000,226757.00000,-,242575.00000,242575.00000,-
MU,3300506,Bom Jardim (RJ),Total,22651.00000,11317.00000,11334.00000,11506.00000,5511.00000,5995.00000,11145.00000,5806.00000,5339.00000,25333.00000,15266.00000,10067.00000,12720.00000,7404.00000,5316.00000,12613.00000,7862.00000,4751.00000
MU,3300605,Bom Jesus do Itabapoana (RJ),Total,33655.00000,27425.00000,6230.00000,16458.00000,13182.00000,3276.00000,17197.00000,14243.00000,2954.00000,35411.00000,29927.00000,5484.00000,17196.00000,14287.00000,2909.00000,18215.00000,15640.00000,2575.00000
MU,3300704,Cabo Frio (RJ),Total,126828.00000,106237.00000,20591.00000,63033.00000,52519.00000,10514.00000,63795.00000,53718.00000,10077.00000,186227.00000,140486.00000,45741.00000,90831.00000,68010.00000,22821.00000,95396.00000,72476.00000,22920.00000
MU,3300803,Cachoeiras de Macacu (RJ),Total,48543.00000,41117.00000,7426.00000,24446.00000,20532.00000,3914.00000,24097.00000,20585.00000,3512.00000,54273.00000,46944.00000,7329.00000,27062.00000,23114.00000,3948.00000,27211.00000,23830.00000,3381.00000
MU,3300902,Cambuci (RJ),Total,14670.00000,9946.00000,4724.00000,7452.00000,4986.00000,2466.00000,7218.00000,4960.00000,2258.00000,14827.00000,11292.00000,3535.00000,7407.00000,5532.00000,1875.00000,7420.00000,5760.00000,1660.00000
MU,3300936,Carapebus (RJ),Total,8666.00000,6875.00000,1791.00000,4459.00000,3559.48504,899.51496,4207.00000,3315.51496,891.48504,13359.00000,10542.00000,2817.00000,6788.00000,5284.00000,1504.00000,6571.00000,5258.00000,1313.00000
MU,3300951,Comendador Levy Gasparian (RJ),Total,7924.00000,7310.00000,614.00000,3963.00000,3674.38142,288.61858,3961.00000,3635.61858,325.38142,8180.00000,7862.00000,318.00000,4076.00000,3905.00000,171.00000,4104.00000,3957.00000,147.00000
MU,3301009,Campos dos Goytacazes (RJ),Total,407167.65671,364177.00000,42990.65671,196711.00000,174765.00000,21946.00000,210456.65671,189412.00000,21044.65671,463731.00000,418725.00000,45006.00000,223259.00000,200256.00000,23003.00000,240472.00000,218469.00000,22003.00000
MU,3301108,Cantagalo (RJ),Total,19835.00000,13698.00000,6137.00000,9911.00000,6707.00000,3204.00000,9924.00000,6991.00000,2933.00000,19830.00000,14022.00000,5808.00000,9831.00000,6835.00000,2996.00000,9999.00000,7187.00000,2812.00000
MU,3301157,Cardoso Moreira (RJ),Total,12595.00000,8041.00000,4554.00000,6287.00000,3928.00000,2359.00000,6308.00000,4113.00000,2195.00000,12600.00000,8757.00000,3843.00000,6270.00000,4266.00000,2004.00000,6330.00000,4491.00000,1839.00000
MU,3301207,Carmo (RJ),Total,15289.00000,11056.00000,4233.00000,7645.00000,5323.00000,2322.00000,7644.00000,5733.00000,1911.00000,17434.00000,13470.00000,3964.00000,8600.00000,6537.00000,2063.00000,8834.00000,6933.00000,1901.00000
MU,3301306,Casimiro de Abreu (RJ),Total,22152.00000,18768.96622,3383.03378,11069.00000,9217.34638,1851.65362,11083.00000,9551.61984,1531.38016,35347.00000,28521.00000,6826.00000,17423.00000,13914.00000,3509.00000,17924.00000,14607.00000,3317.00000
MU,3301405,Conceição de Macabu (RJ),Total,18782.00000,16542.00000,2240.00000,9394.00000,8169.00000,1225.00000,9388.00000,8373.00000,1015.00000,21211.00000,18337.00000,2874.00000,10549.00000,9010.00000,1539.00000,10662.00000,9327.00000,1335.00000
MU,3301504,Cordeiro (RJ),Total,18601.00000,17756.00000,845.00000,9065.00000,8600.00000,465.00000,9536.00000,9156.00000,380.00000,20430.00000,19862.00000,568.00000,9781.00000,9476.00000,305.00000,10649.00000,10386.00000,263.00000
MU,3301603,Duas Barras (RJ),Total,10334.00000,6023.00000,4311.00000,5315.00000,2960.41548,2354.58452,5019.00000,3062.58452,1956.41548,10930.00000,7736.00000,3194.00000,5511.00000,3798.00000,1713.00000,5419.00000,3938.00000,1481.00000
MU,3301702,Duque de Caxias (RJ),Total,775456.00000,772327.00000,3129.00000,375732.00000,374065.40917,1666.59083,399724.00000,398261.59083,1462.40917,855048.00000,852138.00000,2910.00000,411074.00000,409537.00000,1537.00000,443974.00000,442601.00000,1373.00000
MU,3301801,Engenheiro Paulo de Frontin (RJ),Total,12164.00000,8766.00000,3398.00000,6021.00000,4271.00000,1750.00000,6143.00000,4495.00000,1648.00000,13237.00000,9523.00000,3714.00000,6449.00000,4580.00000,1869.00000,6788.00000,4943.00000,1845.00000
MU,3301850,Guapimirim (RJ),Total,37952.00000,25593.00000,12359.00000,18944.00000,12661.00000,6283.00000,19008.00000,12932.00000,6076.00000,51483.00000,49791.62597,1691.37403,25280.00000,24443.31042,836.68958,26203.00000,25348.31555,854.68445
MU,3301876,Iguaba Grande (RJ),Total,15089.00000,15089.00000,-,7458.00000,7458.00000,-,7631.00000,7631.00000,-,22851.00000,22851.00000,-,11046.00000,11046.00000,-,11805.00000,11805.00000,-
MU,3301900,Itaboraí (RJ),Total,187479.00000,177260.00000,10219.00000,92689.00000,87678.29503,5010.70497,94790.00000,89581.70497,5208.29503,218008.00000,215326.89920,2681.10080,106190.00000,104855.57263,1334.42737,111818.00000,110471.32657,1346.67343
MU,3302007,Itaguaí (RJ),Total,82003.00000,78208.00000,3795.00000,40611.00000,38621.49863,1989.50137,41392.00000,39586.50137,1805.49863,109091.00000,104209.00000,4882.00000,54409.00000,51783.00000,2626.00000,54682.00000,52426.00000,2256.00000
MU,3302056,Italva (RJ),Total,12621.00000,8611.15423,4009.84577,6219.00000,4178.85182,2040.14818,6402.00000,4432.30241,1969.69759,14063.00000,10242.00000,3821.00000,6853.00000,4857.00000,1996.00000,7210.00000,5385.00000,1825.00000
MU,3302106,Itaocara (RJ),Total,23003.00000,15928.00000,7075.00000,11367.00000,7686.00000,3681.00000,11636.00000,8242.00000,3394.00000,22899.00000,17326.00000,5573.00000,11192.00000,8305.00000,2887.00000,11707.00000,9021.00000,2686.00000
MU,3302205,Itaperuna (RJ),Total,86720.00000,76863.79574,9856.20426,42295.00000,37230.51325,5064.48675,44425.00000,39633.28250,4791.71750,95841.00000,88368.00000,7473.00000,46553.00000,42604.00000,3949.00000,49288.00000,45764.00000,3524.00000
MU,3302254,Itatiaia (RJ),Total,24739.00000,11728.00000,13011.00000,12278.00000,5710.00000,6568.00000,12461.00000,6018.00000,6443.00000,28783.00000,27813.00000,970.00000,14213.00000,13706.00000,507.00000,14570.00000,14107.00000,463.00000
MU,3302270,Japeri (RJ),Total,83278.00000,83278.00000,-,41301.00000,41301.00000,-,41977.00000,41977.00000,-,95492.00000,95492.00000,-,48080.00000,48080.00000,-,47412.00000,47412.00000,-
MU,3302304,Laje do Muriaé (RJ),Total,7909.00000,5624.00000,2285.00000,3946.00000,2713.00000,1233.00000,3963.00000,2911.00000,1052.00000,7487.00000,5637.00000,1850.00000,3751.00000,2751.00000,1000.00000,3736.00000,2886.00000,850.00000
MU,3302403,Macaé (RJ),Total,132461.00000,126007.00000,6454.00000,65523.00000,61922.28093,3600.71908,66938.00000,64084.71907,2853.28093,206728.00000,202859.00000,3869.00000,102432.00000,100337.00000,2095.00000,104296.00000,102522.00000,1774.00000
MU,3302452,Macuco (RJ),Total,4886.00000,3925.00000,961.00000,2349.00000,1873.00000,476.00000,2537.00000,2052.00000,485.00000,5269.00000,4593.00000,676.00000,2528.00000,2189.00000,339.00000,2741.00000,2404.00000,337.00000
MU,3302502,Magé (RJ),Total,205830.00000,194192.80615,11637.19385,101317.00000,95435.50646,5881.49354,104513.00000,98757.29969,5755.70031,227322.00000,215236.00000,12086.00000,110576.00000,104479.00000,6097.00000,116746.00000,110757.00000,5989.00000
MU,3302601,Mangaratiba (RJ),Total,24901.00000,19860.00000,5041.00000,12622.00000,9979.00000,2643.00000,12279.00000,9881.00000,2398.00000,36456.00000,32120.00000,4336.00000,17962.00000,15710.00000,2252.00000,18494.00000,16410.00000,2084.00000
MU,3302700,Maricá (RJ),Total,76737.00000,63399.00000,13338.00000,38285.00000,31560.00000,6725.00000,38452.00000,31839.00000,6613.00000,127461.00000,125401.40213,2059.59787,62649.00000,61585.13342,1063.86658,64812.00000,63816.26871,995.73129
MU,3302809,Mendes (RJ),Total,17289.00000,17123.00000,166.00000,8367.00000,8288.00000,79.00000,8922.00000,8835.00000,87.00000,17935.00000,17701.00000,234.00000,8651.00000,8533.00000,118.00000,9284.00000,9168.00000,116.00000
MU,3302858,Mesquita (RJ),Total,...,...,...,...,...,...,...,...,...,168376.00000,168376.00000,-,79790.00000,79790.00000,-,88586.00000,88586.00000,-
MU,3302908,Miguel Pereira (RJ),Total,23902.00000,20081.00000,3821.00000,11533.00000,9567.42487,1965.57513,12369.00000,10513.57513,1855.42487,24642.00000,21501.00000,3141.00000,11719.00000,10085.00000,1634.00000,12923.00000,11416.00000,1507.00000
MU,3303005,Miracema (RJ),Total,27064.00000,23757.02639,3306.97361,13181.00000,11421.86268,1759.13732,13883.00000,12335.16371,1547.83629,26843.00000,24741.00000,2102.00000,13026.00000,11932.00000,1094.00000,13817.00000,12809.00000,1008.00000
MU,3303104,Natividade (RJ),Total,15125.00000,11741.00000,3384.00000,7506.00000,5695.00000,1811.00000,7619.00000,6046.00000,1573.00000,15082.00000,12046.00000,3036.00000,7445.00000,5830.00000,1615.00000,7637.00000,6216.00000,1421.00000
MU,3303203,Nilópolis (RJ),Total,153712.00000,153712.00000,-,72563.00000,72563.00000,-,81149.00000,81149.00000,-,157425.00000,157425.00000,-,73674.00000,73674.00000,-,83751.00000,83751.00000,-
MU,3303302,Niterói (RJ),Total,459451.00000,459451.00000,-,213984.00000,213984.00000,-,245467.00000,245467.00000,-,487562.00000,487562.00000,-,225838.00000,225838.00000,-,261724.00000,261724.00000,-
MU,3303401,Nova Friburgo (RJ),Total,173418.00000,151851.00000,21567.00000,84281.00000,72969.00000,11312.00000,89137.00000,78882.00000,10255.00000,182082.00000,159372.00000,22710.00000,87254.00000,75599.00000,11655.00000,94828.00000,83773.00000,11055.00000
MU,3303500,Nova Iguaçu (RJ),Total,920599.00000,920599.00000,-,445609.00000,445609.00000,-,474990.00000,474990.00000,-,796257.00000,787563.00000,8694.00000,381750.00000,377336.00000,4414.00000,414507.00000,410227.00000,4280.00000
MU,3303609,Paracambi (RJ),Total,40475.00000,36868.00000,3607.00000,19921.00000,18069.00000,1852.00000,20554.00000,18799.00000,1755.00000,47124.00000,41722.00000,5402.00000,23793.00000,20785.00000,3008.00000,23331.00000,20937.00000,2394.00000
MU,3303708,Paraíba do Sul (RJ),Total,37410.00000,32688.00000,4722.00000,18141.00000,15702.00000,2439.00000,19269.00000,16986.00000,2283.00000,41084.00000,36154.00000,4930.00000,19751.00000,17214.00000,2537.00000,21333.00000,18940.00000,2393.00000
MU,3303807,Paraty (RJ),Total,29544.00000,14066.00000,15478.00000,15066.00000,6929.00000,8137.00000,14478.00000,7137.00000,7341.00000,37533.00000,27689.00000,9844.00000,18964.00000,13751.00000,5213.00000,18569.00000,13938.00000,4631.00000
MU,3303856,Paty do Alferes (RJ),Total,24931.00000,16756.00000,8175.00000,12388.00000,8119.00000,4269.00000,12543.00000,8637.00000,3906.00000,26359.00000,18585.00000,7774.00000,12817.00000,8895.00000,3922.00000,13542.00000,9690.00000,3852.00000
MU,3303906,Petrópolis (RJ),Total,286537.00000,270294.80193,16242.19808,138114.00000,129939.79465,8174.20535,148423.00000,140355.00728,8067.99272,295917.00000,281286.00000,14631.00000,140996.00000,133694.00000,7302.00000,154921.00000,147592.00000,7329.00000
MU,3303955,Pinheiral (RJ),Total,19481.00000,17672.00000,1809.00000,9687.00000,8709.00000,978.00000,9794.00000,8963.00000,831.00000,22719.00000,20411.00000,2308.00000,11034.00000,9850.00000,1184.00000,11685.00000,10561.00000,1124.00000
MU,3304003,Piraí (RJ),Total,22118.00000,18070.00000,4048.00000,11001.00000,8837.00000,2164.00000,11117.00000,9233.00000,1884.00000,26314.00000,20836.00000,5478.00000,12917.00000,10071.00000,2846.00000,13397.00000,10765.00000,2632.00000
MU,3304102,Porciúncula (RJ),Total,16092.80933,12018.00000,4074.80933,8067.28249,5808.00000,2259.28249,8025.52684,6210.00000,1815.52683,17760.00000,13890.00000,3870.00000,8874.00000,6788.00000,2086.00000,8886.00000,7102.00000,1784.00000
MU,3304110,Porto Real (RJ),Total,12095.00000,11388.00000,707.00000,6091.00000,5719.00000,372.00000,6004.00000,5669.00000,335.00000,16592.00000,16497.00000,95.00000,8242.00000,8186.00000,56.00000,8350.00000,8311.00000,39.00000
MU,3304128,Quatis (RJ),Total,10730.00000,9469.37191,1260.62809,5418.00000,4733.90690,684.09310,5312.00000,4735.46501,576.53499,12793.00000,12029.00000,764.00000,6238.00000,5807.00000,431.00000,6555.00000,6222.00000,333.00000
MU,3304144,Queimados (RJ),Total,121993.00000,121993.00000,-,59504.00000,59504.00000,-,62489.00000,62489.00000,-,137962.00000,137962.00000,-,66585.00000,66585.00000,-,71377.00000,71377.00000,-
MU,3304151,Quissamã (RJ),Total,13674.00000,7699.00000,5975.00000,6927.00000,3827.00000,3100.00000,6747.00000,3872.00000,2875.00000,20242.00000,12996.00000,7246.00000,10043.00000,6316.00000,3727.00000,10199.00000,6680.00000,3519.00000
MU,3304201,Resende (RJ),Total,104549.00000,95963.00000,8586.00000,51170.00000,46657.00000,4513.00000,53379.00000,49306.00000,4073.00000,119769.00000,112331.00000,7438.00000,58268.00000,54405.00000,3863.00000,61501.00000,57926.00000,3575.00000
MU,3304300,Rio Bonito (RJ),Total,49691.00000,32450.00000,17241.00000,24875.00000,15776.00000,9099.00000,24816.00000,16674.00000,8142.00000,55551.00000,41259.00000,14292.00000,27318.00000,19913.00000,7405.00000,28233.00000,21346.00000,6887.00000
MU,3304409,Rio Claro (RJ),Total,16228.00000,11616.00000,4612.00000,8279.00000,5793.00000,2486.00000,7949.00000,5823.00000,2126.00000,17425.00000,13769.00000,3656.00000,8769.00000,6793.00000,1976.00000,8656.00000,6976.00000,1680.00000
MU,3304508,Rio das Flores (RJ),Total,7625.00000,5364.00000,2261.00000,3764.00000,2581.00000,1183.00000,3861.00000,2783.00000,1078.00000,8561.00000,5959.00000,2602.00000,4211.00000,2861.00000,1350.00000,4350.00000,3098.00000,1252.00000
MU,3304524,Rio das Ostras (RJ),Total,36419.00000,34552.00000,1867.00000,18134.00000,17122.00000,1012.00000,18285.00000,17430.00000,855.00000,105676.00000,99905.00000,5771.00000,52207.00000,49219.00000,2988.00000,53469.00000,50686.00000,2783.00000
MU,3304557,Rio de Janeiro (RJ),Total,5857903.99999,5857903.99999,-,2747797.39137,2747797.39137,-,3110106.60861,3110106.60861,-,6320446.00000,6320446.00000,-,2959817.00000,2959817.00000,-,3360629.00000,3360629.00000,-
MU,3304607,Santa Maria Madalena (RJ),Total,10476.00000,5530.00000,4946.00000,5341.00000,2701.00000,2640.00000,5135.00000,2829.00000,2306.00000,10321.00000,5932.00000,4389.00000,5275.00000,2894.00000,2381.00000,5046.00000,3038.00000,2008.00000
MU,3304706,Santo Antônio de Pádua (RJ),Total,38692.00000,29415.00000,9277.00000,19241.00000,14394.00000,4847.00000,19451.00000,15021.00000,4430.00000,40589.00000,31100.00000,9489.00000,19961.00000,15078.00000,4883.00000,20628.00000,16022.00000,4606.00000
MU,3304755,São Francisco de Itabapoana (RJ),Total,41475.15561,19738.21183,21736.94378,21201.00000,9948.55202,11252.44798,20274.15561,9789.65981,10484.49580,41354.00000,21092.00000,20262.00000,20808.00000,10453.00000,10355.00000,20546.00000,10639.00000,9907.00000
MU,3304805,São Fidélis (RJ),Total,36789.00000,26513.00000,10276.00000,18078.00000,12660.36643,5417.63357,18711.00000,13852.63356,4858.36643,37543.00000,29679.00000,7864.00000,18394.00000,14206.00000,4188.00000,19149.00000,15473.00000,3676.00000
MU,3304904,São Gonçalo (RJ),Total,891119.00000,891119.00000,-,429404.00000,429404.00000,-,461715.00000,461715.00000,-,999728.00000,998999.00000,729.00000,475264.00000,474894.00000,370.00000,524464.00000,524105.00000,359.00000
MU,3305000,São João da Barra (RJ),Total,27682.00000,19631.00000,8051.00000,13813.00000,9654.00000,4159.00000,13869.00000,9977.00000,3892.00000,32747.00000,25693.00000,7054.00000,16229.00000,12651.00000,3578.00000,16518.00000,13042.00000,3476.00000
MU,3305109,São João de Meriti (RJ),Total,449476.00000,449476.00000,-,216014.00000,216014.00000,-,233462.00000,233462.00000,-,458673.00000,458673.00000,-,218104.00000,218104.00000,-,240569.00000,240569.00000,-
MU,3305133,São José de Ubá (RJ),Total,6413.00000,2326.00000,4087.00000,3310.00000,1103.18577,2206.81423,3103.00000,1222.81423,1880.18577,7003.00000,3098.00000,3905.00000,3498.00000,1497.00000,2001.00000,3505.00000,1601.00000,1904.00000
MU,3305158,São José do Vale do Rio Preto (RJ),Total,19278.00000,9007.00000,10271.00000,9670.00000,4472.00000,5198.00000,9608.00000,4535.00000,5073.00000,20251.00000,9007.00000,11244.00000,10145.00000,4421.00000,5724.00000,10106.00000,4586.00000,5520.00000
MU,3305208,São Pedro da Aldeia (RJ),Total,63227.00000,52141.00000,11086.00000,31631.00000,25979.00000,5652.00000,31596.00000,26162.00000,5434.00000,87875.00000,82148.00000,5727.00000,43431.00000,40510.00000,2921.00000,44444.00000,41638.00000,2806.00000
MU,3305307,São Sebastião do Alto (RJ),Total,8402.00000,3677.00000,4725.00000,4283.00000,1822.00000,2461.00000,4119.00000,1855.00000,2264.00000,8895.00000,4612.00000,4283.00000,4467.00000,2245.00000,2222.00000,4428.00000,2367.00000,2061.00000
MU,3305406,Sapucaia (RJ),Total,17157.00000,12161.00000,4996.00000,8546.00000,5892.00000,2654.00000,8611.00000,6269.00000,2342.00000,17525.00000,13273.00000,4252.00000,8766.00000,6486.00000,2280.00000,8759.00000,6787.00000,1972.00000
MU,3305505,Saquarema (RJ),Total,52461.00000,50422.00000,2039.00000,26219.00000,25148.00000,1071.00000,26242.00000,25274.00000,968.00000,74234.00000,70456.00000,3778.00000,36855.00000,34908.00000,1947.00000,37379.00000,35548.00000,1831.00000
MU,3305554,Seropédica (RJ),Total,65260.00000,51897.00000,13363.00000,32250.00000,25489.00000,6761.00000,33010.00000,26408.00000,6602.00000,78186.00000,64285.00000,13901.00000,38433.00000,31445.00000,6988.00000,39753.00000,32840.00000,6913.00000
MU,3305604,Silva Jardim (RJ),Total,21265.00000,14215.00000,7050.00000,10882.00000,7072.00000,3810.00000,10383.00000,7143.00000,3240.00000,21349.00000,16121.00000,5228.00000,10808.00000,7962.00000,2846.00000,10541.00000,8159.00000,2382.00000
MU,3305703,Sumidouro (RJ),Total,14176.00000,2334.00000,11842.00000,7295.00000,1170.10003,6124.89997,6881.00000,1163.89997,5717.10003,14900.00000,5440.00000,9460.00000,7652.00000,2663.00000,4989.00000,7248.00000,2777.00000,4471.00000
MU,3305752,Tanguá (RJ),Total,26057.00000,22448.00000,3609.00000,13065.00000,11187.00000,1878.00000,12992.00000,11261.00000,1731.00000,30732.00000,27428.00000,3304.00000,15289.00000,13563.00000,1726.00000,15443.00000,13865.00000,1578.00000
MU,3305802,Teresópolis (RJ),Total,138081.00000,115198.00000,22883.00000,67111.00000,55220.00000,11891.00000,70970.00000,59978.00000,10992.00000,163746.00000,146231.00000,17515.00000,78275.00000,69454.00000,8821.00000,85471.00000,76777.00000,8694.00000
MU,3305901,Trajano de Moraes (RJ),Total,10212.10151,3710.63474,6501.46677,5311.19434,1889.20862,3421.98572,4900.90718,1821.42612,3079.48106,10289.00000,4780.00000,5509.00000,5258.00000,2330.00000,2928.00000,5031.00000,2450.00000,2581.00000
MU,3306008,Três Rios (RJ),Total,71976.00000,67347.00000,4629.00000,34805.00000,32387.00000,2418.00000,37171.00000,34960.00000,2211.00000,77432.00000,75165.00000,2267.00000,37014.00000,35782.00000,1232.00000,40418.00000,39383.00000,1035.00000
MU,3306107,Valença (RJ),Total,66308.00000,57323.00000,8985.00000,31986.00000,27304.00000,4682.00000,34322.00000,30019.00000,4303.00000,71843.00000,62224.00000,9619.00000,34450.00000,29353.00000,5097.00000,37393.00000,32871.00000,4522.00000
MU,3306156,Varre-Sai (RJ),Total,7854.00000,4132.00000,3722.00000,4035.00000,2063.47221,1971.52779,3819.00000,2068.52779,1750.47221,9475.00000,5790.00000,3685.00000,4756.00000,2840.00000,1916.00000,4719.00000,2950.00000,1769.00000
MU,3306206,Vassouras (RJ),Total,31451.00000,19886.00000,11565.00000,15190.00000,9317.00000,5873.00000,16261.00000,10569.00000,5692.00000,34410.00000,23199.00000,11211.00000,16391.00000,10823.00000,5568.00000,18019.00000,12376.00000,5643.00000
MU,3306305,Volta Redonda (RJ),Total,242063.00000,242052.99621,10.00379,116740.00000,116729.99621,10.00379,125323.00000,125323.00000,-,257803.00000,257686.00000,117.00000,122919.00000,122859.00000,60.00000,134884.00000,134827.00000,57.00000
Fonte: IBGE - Censo Demográfico,,,,,,,,,,,,,,,,,,,,,
,,,,,,,,,,,,,,,,,,,,,
Notas,,,,,,,,,,,,,,,,,,,,,
"1 - Para o ano de 1991, dados do Universo. Para os demais anos, dados da Amostra",,,,,,,,,,,,,,,,,,,,,
"2 - Até o ano de 1991 os grupos de idade vão até 80 anos ou mais; a partir de 2000, vão até 100 anos ou mais.",,,,,,,,,,,,,,,,,,,,,
,,,,,,,,,,,,,,,,,,,,,
Legenda,,,,,,,,,,,,,,,,,,,,,
Símbolo,Significado,,,,,,,,,,,,,,,,,,,,
-,"Zero absoluto, não resultante de um cálculo ou arredondamento.
Ex: Em determinado município não existem pessoas de 14 anos de idade sem instrução.",,,,,,,,,,,,,,,,,,,,
0,"Zero resultante de um cálculo ou arredondamento.
Ex: A inflação do feijão em determinada Região Metropolitana foi 0.
Determinado município produziu 400 kg de sementes de girassol e os dados da tabela são expressos em toneladas.",,,,,,,,,,,,,,,,,,,,
X,"Valor inibido para não identificar o informante.
Ex: Determinado município só possui uma empresa produtora de cimento, logo o valor de sua produção deve ser inibido.",,,,,,,,,,,,,,,,,,,,
..,"Valor não se aplica.
Ex: Não se pode obter o total da produção agrícola em determinado município quando os produtos agrícolas são contabilizados com unidades de medida distintas.",,,,,,,,,,,,,,,,,,,,
...,"Valor não disponível.
Ex: A produção de feijão em determinado município não foi pesquisada ou determinado município não existia no ano da pesquisa.",,,,,,,,,,,,,,,,,,,,
"A a Z
(exceto X)","Significa uma faixa de valores. Varia em função da tabela (se for o caso).
Ex: O nível de precisão da produção estimada de combustíveis está na faixa A (95 a 100%)",,,,,,,,,,,,,,,,,,,,
